%YAML 1.1
%TAG !u! tag:unity3d.com,2011:
--- !u!1045 &1
EditorBuildSettings:
  m_ObjectHideFlags: 0
  serializedVersion: 2
  m_Scenes:
  - enabled: 1
    path: Assets/Scenes/Persistents.unity
  - enabled: 1
    path: Assets/Scenes/Stage00.unity
  - enabled: 1
    path: Assets/Scenes/Stage01.unity
  - enabled: 1
    path: Assets/Scenes/Stage02.unity
  - enabled: 1
    path: Assets/Scenes/Stage03.unity
  - enabled: 1
    path: Assets/Scenes/Stage04.unity
  - enabled: 1
    path: Assets/Scenes/Stage05.unity
  - enabled: 1
    path: Assets/Scenes/Stage06.unity
